Data Cleaning and Manipulation
…
???
Lets take a look at some wide data here we are looking at billboard top hits. I have truncated it a bit to fit on the slide but weeks goes to week 47. Instead of having each week be an individual column we want it to be in a tidy format where week is one column and the values from all those columns are in the week column we create 
---

---

```r
relig_income |> 
  pivot_longer(!religion, names_to = "income", values_to = "count" )
```

```
## # A tibble: 180 × 3
##    religion income             count
##    <chr>    <chr>              <dbl>
##  1 Agnostic <$10k                 27
##  2 Agnostic $10-20k               34
##  3 Agnostic $20-30k               60
##  4 Agnostic $30-40k               81
##  5 Agnostic $40-50k               76
##  6 Agnostic $50-75k              137
##  7 Agnostic $75-100k             122
##  8 Agnostic $100-150k            109
##  9 Agnostic >150k                 84
## 10 Agnostic Don't know/refused    96
## # … with 170 more rows
## # ℹ Use `print(n = ...)` to see more rows
```
…
```r
billboard |> 
  pivot_longer( cols = starts_with("wk"),  names_to = "Week",, names_prefix = "wk"  , values_to = "rank")
```

```
## # A tibble: 24,092 × 5
##    artist track                   date.entered Week   rank
##    <chr>  <chr>                   <date>       <chr> <dbl>
##  1 2 Pac  Baby Don't Cry (Keep... 2000-02-26   1        87
##  2 2 Pac  Baby Don't Cry (Keep... 2000-02-26   2        82
##  3 2 Pac  Baby Don't Cry (Keep... 2000-02-26   3        72
##  4 2 Pac  Baby Don't Cry (Keep... 2000-02-26   4        77
##  5 2 Pac  Baby Don't Cry (Keep... 2000-02-26   5        87
##  6 2 Pac  Baby Don't Cry (Keep... 2000-02-26   6        94
##  7 2 Pac  Baby Don't Cry (Keep... 2000-02-26   7        99
##  8 2 Pac  Baby Don't Cry (Keep... 2000-02-26   8        NA
##  9 2 Pac  Baby Don't Cry (Keep... 2000-02-26   9        NA
## 10 2 Pac  Baby Don't Cry (Keep... 2000-02-26   10       NA
## # … with 24,082 more rows
## # ℹ Use `print(n = ...)` to see more rows
```
…
